^C:\USERS\ALUNO\DOCUMENTS\FLUTTER_PROJECTS\CHAT_BOX\WINDOWS\FLUTTER\EPHEMERAL\CPP_CLIENT_WRAPPER\CORE_IMPLEMENTATIONS.CC
/c /IC:\USERS\ALUNO\DOCUMENTS\FLUTTER_PROJECTS\CHAT_BOX\WINDOWS\FLUTTER\EPHEMERAL\CPP_CLIENT_WRAPPER\INCLUDE /IC:\USERS\ALUNO\DOCUMENTS\FLUTTER_PROJECTS\CHAT_BOX\WINDOWS\FLUTTER\EPHEMERAL /Zi /nologo /W4 /WX /diagnostics:column /Od /Ob0 /D WIN32 /D _WINDOWS /D _HAS_EXCEPTIONS=0 /D _DEBUG /D UNICODE /D _UNICODE /D "CMAKE_INTDIR=\"Debug\"" /D _UNICODE /D UNICODE /Gm- /EHsc /RTC1 /MDd /GS /fp:precise /Zc:wchar_t /Zc:forScope /Zc:inline /GR /std:c++17 /Fo"FLUTTER_WRAPPER_APP.DIR\DEBUG\\" /Fd"C:\USERS\ALUNO\DOCUMENTS\FLUTTER_PROJECTS\CHAT_BOX\BUILD\WINDOWS\FLUTTER\DEBUG\FLUTTER_WRAPPER_APP.PDB" /external:W4 /Gd /TP /wd4100 C:\USERS\ALUNO\DOCUMENTS\FLUTTER_PROJECTS\CHAT_BOX\WINDOWS\FLUTTER\EPHEMERAL\CPP_CLIENT_WRAPPER\CORE_IMPLEMENTATIONS.CC
^C:\USERS\ALUNO\DOCUMENTS\FLUTTER_PROJECTS\CHAT_BOX\WINDOWS\FLUTTER\EPHEMERAL\CPP_CLIENT_WRAPPER\STANDARD_CODEC.CC
/c /IC:\USERS\ALUNO\DOCUMENTS\FLUTTER_PROJECTS\CHAT_BOX\WINDOWS\FLUTTER\EPHEMERAL\CPP_CLIENT_WRAPPER\INCLUDE /IC:\USERS\ALUNO\DOCUMENTS\FLUTTER_PROJECTS\CHAT_BOX\WINDOWS\FLUTTER\EPHEMERAL /Zi /nologo /W4 /WX /diagnostics:column /Od /Ob0 /D WIN32 /D _WINDOWS /D _HAS_EXCEPTIONS=0 /D _DEBUG /D UNICODE /D _UNICODE /D "CMAKE_INTDIR=\"Debug\"" /D _UNICODE /D UNICODE /Gm- /EHsc /RTC1 /MDd /GS /fp:precise /Zc:wchar_t /Zc:forScope /Zc:inline /GR /std:c++17 /Fo"FLUTTER_WRAPPER_APP.DIR\DEBUG\\" /Fd"C:\USERS\ALUNO\DOCUMENTS\FLUTTER_PROJECTS\CHAT_BOX\BUILD\WINDOWS\FLUTTER\DEBUG\FLUTTER_WRAPPER_APP.PDB" /external:W4 /Gd /TP /wd4100 C:\USERS\ALUNO\DOCUMENTS\FLUTTER_PROJECTS\CHAT_BOX\WINDOWS\FLUTTER\EPHEMERAL\CPP_CLIENT_WRAPPER\STANDARD_CODEC.CC
^C:\USERS\ALUNO\DOCUMENTS\FLUTTER_PROJECTS\CHAT_BOX\WINDOWS\FLUTTER\EPHEMERAL\CPP_CLIENT_WRAPPER\FLUTTER_ENGINE.CC
/c /IC:\USERS\ALUNO\DOCUMENTS\FLUTTER_PROJECTS\CHAT_BOX\WINDOWS\FLUTTER\EPHEMERAL\CPP_CLIENT_WRAPPER\INCLUDE /IC:\USERS\ALUNO\DOCUMENTS\FLUTTER_PROJECTS\CHAT_BOX\WINDOWS\FLUTTER\EPHEMERAL /Zi /nologo /W4 /WX /diagnostics:column /Od /Ob0 /D WIN32 /D _WINDOWS /D _HAS_EXCEPTIONS=0 /D _DEBUG /D UNICODE /D _UNICODE /D "CMAKE_INTDIR=\"Debug\"" /D _UNICODE /D UNICODE /Gm- /EHsc /RTC1 /MDd /GS /fp:precise /Zc:wchar_t /Zc:forScope /Zc:inline /GR /std:c++17 /Fo"FLUTTER_WRAPPER_APP.DIR\DEBUG\\" /Fd"C:\USERS\ALUNO\DOCUMENTS\FLUTTER_PROJECTS\CHAT_BOX\BUILD\WINDOWS\FLUTTER\DEBUG\FLUTTER_WRAPPER_APP.PDB" /external:W4 /Gd /TP /wd4100 C:\USERS\ALUNO\DOCUMENTS\FLUTTER_PROJECTS\CHAT_BOX\WINDOWS\FLUTTER\EPHEMERAL\CPP_CLIENT_WRAPPER\FLUTTER_ENGINE.CC
^C:\USERS\ALUNO\DOCUMENTS\FLUTTER_PROJECTS\CHAT_BOX\WINDOWS\FLUTTER\EPHEMERAL\CPP_CLIENT_WRAPPER\FLUTTER_VIEW_CONTROLLER.CC
/c /IC:\USERS\ALUNO\DOCUMENTS\FLUTTER_PROJECTS\CHAT_BOX\WINDOWS\FLUTTER\EPHEMERAL\CPP_CLIENT_WRAPPER\INCLUDE /IC:\USERS\ALUNO\DOCUMENTS\FLUTTER_PROJECTS\CHAT_BOX\WINDOWS\FLUTTER\EPHEMERAL /Zi /nologo /W4 /WX /diagnostics:column /Od /Ob0 /D WIN32 /D _WINDOWS /D _HAS_EXCEPTIONS=0 /D _DEBUG /D UNICODE /D _UNICODE /D "CMAKE_INTDIR=\"Debug\"" /D _UNICODE /D UNICODE /Gm- /EHsc /RTC1 /MDd /GS /fp:precise /Zc:wchar_t /Zc:forScope /Zc:inline /GR /std:c++17 /Fo"FLUTTER_WRAPPER_APP.DIR\DEBUG\\" /Fd"C:\USERS\ALUNO\DOCUMENTS\FLUTTER_PROJECTS\CHAT_BOX\BUILD\WINDOWS\FLUTTER\DEBUG\FLUTTER_WRAPPER_APP.PDB" /external:W4 /Gd /TP /wd4100 C:\USERS\ALUNO\DOCUMENTS\FLUTTER_PROJECTS\CHAT_BOX\WINDOWS\FLUTTER\EPHEMERAL\CPP_CLIENT_WRAPPER\FLUTTER_VIEW_CONTROLLER.CC
