^C:\USERS\ALUNO\DOCUMENTS\FLUTTER_PROJECTS\CHAT_BOX\WINDOWS\FLUTTER\CMAKELISTS.TXT
setlocal
"C:\Program Files (x86)\Microsoft Visual Studio\2019\BuildTools\Common7\IDE\CommonExtensions\Microsoft\CMake\CMake\bin\cmake.exe" -SC:/Users/Aluno/Documents/flutter_projects/chat_box/windows -BC:/Users/Aluno/Documents/flutter_projects/chat_box/build/windows --check-stamp-file C:/Users/Aluno/Documents/flutter_projects/chat_box/build/windows/flutter/CMakeFiles/generate.stamp
if %errorlevel% neq 0 goto :cmEnd
:cmEnd
endlocal & call :cmErrorLevel %errorlevel% & goto :cmDone
:cmErrorLevel
exit /b %1
:cmDone
if %errorlevel% neq 0 goto :VCEnd
